<svg id="Capa_1" data-name="Capa 1" xmlns="http://www.w3.org/2000/svg" viewBox="0 0 197.4 44">
  <defs>
    <style>
      .cls-1 {
        fill: #b1132f;
      }

      .cls-2, .cls-3 {
        fill: #293f89;
      }

      .cls-3 {
        fill-rule: evenodd;
      }
    </style>
  </defs>
  <title>colar</title>
  <path class="cls-1" d="M1741.1-448.4l-.3-1-.3-1h0c-.1.3-.1.7-.2,1l-.3,1Zm-1.3.8-.3,1.3h-1.1l1.4-4.9h1.5l1.5,4.9h-1.2l-.4-1.3Z" transform="translate(-1692.1 487.5)"/>
  <path class="cls-1" d="M1744.5-449h.4c.6,0,.9-.3.9-.7s-.3-.7-.8-.7h-.5Zm-1.1-2.1h1.5a2.1,2.1,0,0,1,1.5.4,1.1,1.1,0,0,1,.5,1,1.3,1.3,0,0,1-.9,1.2h0c.4.1.6.4.7.9a8.4,8.4,0,0,0,.4,1.4H1746l-.4-1.2c-.1-.6-.3-.7-.8-.7h-.3v1.9h-1.1Z" transform="translate(-1692.1 487.5)"/>
  <polygon class="cls-1" points="58.4 39.1 56.7 39.1 56.7 40.3 58.6 40.3 58.6 41.2 55.6 41.2 55.6 36.4 58.5 36.4 58.5 37.3 56.7 37.3 56.7 38.3 58.4 38.3 58.4 39.1"/>
  <path class="cls-1" d="M1754.8-448.8c0-.9-.4-1.6-1.2-1.6s-1.2.7-1.2,1.6.5,1.7,1.2,1.7,1.2-.7,1.2-1.7m.8,3.3-1.9-.7h-.3a2.1,2.1,0,0,1-2.1-2.4,2.3,2.3,0,0,1,2.3-2.6,2.3,2.3,0,0,1,2.3,2.5,2.1,2.1,0,0,1-1.1,2.1h0l1.2.2Z" transform="translate(-1692.1 487.5)"/>
  <path class="cls-1" d="M1757.7-451.2v2.8c0,.8.4,1.3.9,1.3s.9-.4.9-1.3v-2.8h1.1v2.7c0,1.5-.8,2.2-2,2.2s-2-.6-2-2.2v-2.7Z" transform="translate(-1692.1 487.5)"/>
  <rect class="cls-1" x="69.4" y="36.4" width="1.1" height="4.83"/>
  <path class="cls-1" d="M1764.7-448.9h.3c.6,0,1-.3,1-.8s-.3-.7-.9-.7h-.4Zm-1.1-2.2h1.5a2,2,0,0,1,1.4.4,1.1,1.1,0,0,1,.6,1.1,1.3,1.3,0,0,1-.5,1.1,2.1,2.1,0,0,1-1.6.5h-.3v1.8h-1.1Z" transform="translate(-1692.1 487.5)"/>
  <path class="cls-1" d="M1769.7-448.4l-.3-1-.3-1h0a3.6,3.6,0,0,1-.2,1l-.3,1Zm-1.2.8-.4,1.3H1767l1.5-4.9h1.4l1.5,4.9h-1.2l-.4-1.3Z" transform="translate(-1692.1 487.5)"/>
  <rect class="cls-1" x="81.6" y="35.8" width="0.3" height="7.17"/>
  <path class="cls-1" d="M1777.1-448.7h.7a1.3,1.3,0,0,0,1.4-1.2c0-.8-.6-1.1-1.4-1.1h-.7Zm-.3-2.4h1c.6,0,1.1.1,1.3.4a1,1,0,0,1,.4.9,1.3,1.3,0,0,1-.3,1,2,2,0,0,1-1.5.5h-.6v2.1h-.3Z" transform="translate(-1692.1 487.5)"/>
  <polygon class="cls-1" points="90.6 38.8 88.6 38.8 88.6 40.9 90.8 40.9 90.8 41.2 88.3 41.2 88.3 36.4 90.7 36.4 90.7 36.6 88.6 36.6 88.6 38.5 90.6 38.5 90.6 38.8"/>
  <path class="cls-1" d="M1784.1-448.8h.8a1.1,1.1,0,0,0,1.2-1.1c0-.7-.5-1-1.3-1h-.7Zm-.3-2.3h1a1.7,1.7,0,0,1,1.3.4,1.2,1.2,0,0,1,.3.9,1.2,1.2,0,0,1-.9,1.2h0c.4.1.6.5.7,1.1a11.1,11.1,0,0,0,.4,1.3h-.4a4.9,4.9,0,0,0-.3-1.2,1.1,1.1,0,0,0-1.1-1.1h-.7v2.3h-.3Z" transform="translate(-1692.1 487.5)"/>
  <path class="cls-1" d="M1790-452.2l-.9.8h-.3l.7-.8Zm-2.3,1v2.9c0,1.3.6,1.7,1.3,1.7s1.4-.5,1.4-1.7v-2.9h.3v2.9c0,1.5-.8,2-1.7,2s-1.6-.5-1.6-1.9v-3Z" transform="translate(-1692.1 487.5)"/>
  <rect class="cls-1" x="39.8" y="33" width="1.4" height="10.99"/>
  <path class="cls-2" d="M1739.3-463.4a8.2,8.2,0,0,0,3.5.8c1.4,0,2.2-.6,2.2-1.5s-.7-1.3-2.4-1.9-3.8-2.1-3.8-4.1,2-4.2,5.3-4.2a8,8,0,0,1,3.5.7l-.7,2.5a7.5,7.5,0,0,0-2.9-.6c-1.3,0-2,.6-2,1.3s.8,1.3,2.6,2,3.6,2.1,3.6,4.1-1.8,4.3-5.6,4.3a8.4,8.4,0,0,1-4-.9Z" transform="translate(-1692.1 487.5)"/>
  <path class="cls-2" d="M1755.6-465c-1.7,0-2.9.4-2.9,1.6a1.1,1.1,0,0,0,1.2,1.2,1.7,1.7,0,0,0,1.6-1.1,1.3,1.3,0,0,0,.1-.6Zm.4,4.8-.2-1h-.1a3.7,3.7,0,0,1-2.9,1.2,3.1,3.1,0,0,1-3.2-3.1c0-2.6,2.3-3.8,5.9-3.8v-.2c0-.5-.3-1.3-1.8-1.3a5.5,5.5,0,0,0-2.8.8l-.6-2a8.2,8.2,0,0,1,3.9-.9c3.4,0,4.4,2,4.4,4.3v3.5a15.7,15.7,0,0,0,.2,2.5Z" transform="translate(-1692.1 487.5)"/>
  <path class="cls-2" d="M1761-467.1a31.1,31.1,0,0,0-.1-3.2h2.7l.2,1.4h0a3.9,3.9,0,0,1,3.1-1.6c2.1,0,3.6,1.4,3.6,4.3v6h-3.1v-5.6c0-1.3-.4-2.2-1.6-2.2a1.7,1.7,0,0,0-1.6,1.2c0,.2-.1.5-.1.8v5.8H1761Z" transform="translate(-1692.1 487.5)"/>
  <path class="cls-2" d="M1779.8-474.1h3.1v8.8c0,3.9-1.9,5.3-4.9,5.3a8.5,8.5,0,0,1-2.3-.3l.4-2.6a3.5,3.5,0,0,0,1.6.3c1.3,0,2.1-.6,2.1-2.8Z" transform="translate(-1692.1 487.5)"/>
  <path class="cls-2" d="M1794.8-463.4a30.1,30.1,0,0,0,.1,3.2h-2.7l-.2-1.4h0a3.7,3.7,0,0,1-3.2,1.6c-2,0-3.5-1.3-3.5-4.4v-5.9h3.1v5.4c0,1.5.5,2.4,1.6,2.4a1.7,1.7,0,0,0,1.6-1.1c0-.2.1-.4.1-.7v-6h3.1Z" transform="translate(-1692.1 487.5)"/>
  <path class="cls-2" d="M1802.6-465c-1.7,0-3,.4-3,1.6a1.2,1.2,0,0,0,1.3,1.2,1.7,1.7,0,0,0,1.6-1.1c0-.2.1-.4.1-.6Zm.3,4.8-.2-1h0a3.7,3.7,0,0,1-2.9,1.2,3.1,3.1,0,0,1-3.2-3.1c0-2.6,2.3-3.8,5.9-3.8v-.2c0-.5-.3-1.3-1.9-1.3a6.1,6.1,0,0,0-2.8.8l-.5-2a7.9,7.9,0,0,1,3.9-.9c3.3,0,4.4,2,4.4,4.3v3.5a17.8,17.8,0,0,0,.1,2.5Z" transform="translate(-1692.1 487.5)"/>
  <path class="cls-2" d="M1808-467.1c0-1.2-.1-2.3-.1-3.2h2.7v1.4h.1a3.7,3.7,0,0,1,3.1-1.6c2.1,0,3.6,1.4,3.6,4.3v6h-3.1v-5.6c0-1.3-.5-2.2-1.6-2.2a1.6,1.6,0,0,0-1.6,1.2,1.9,1.9,0,0,0-.1.8v5.8H1808Z" transform="translate(-1692.1 487.5)"/>
  <path class="cls-2" d="M1830.6-466a1.3,1.3,0,0,0-.1-.6,1.8,1.8,0,0,0-1.8-1.5c-1.4,0-2.2,1.3-2.2,2.8s.9,2.8,2.2,2.8a1.8,1.8,0,0,0,1.8-1.5,1.5,1.5,0,0,0,.1-.7Zm3.1-8.8v11.6a26.3,26.3,0,0,0,.1,3H1831v-1.5h-.1a3.4,3.4,0,0,1-3.1,1.7c-2.4,0-4.3-2-4.3-5.2s2.1-5.3,4.5-5.3a2.9,2.9,0,0,1,2.6,1.1h.1v-5.4Z" transform="translate(-1692.1 487.5)"/>
  <path class="cls-2" d="M1842.2-466.4a1.8,1.8,0,0,0-1.8-2,2,2,0,0,0-1.9,2Zm-3.7,2.2c.1,1.2,1.4,1.9,2.8,1.9a11.1,11.1,0,0,0,2.8-.4l.4,2.1a9.7,9.7,0,0,1-3.6.6c-3.4,0-5.4-2-5.4-5.1s1.6-5.4,5.1-5.4,4.5,2.5,4.5,5c0,.6-.1,1-.1,1.3Z" transform="translate(-1692.1 487.5)"/>
  <path class="cls-2" d="M1854.2-462.6h1c2.9,0,4.7-1.6,4.7-4.9s-1.6-4.4-4.3-4.4l-1.4.2Zm-3.2-11.3a26.7,26.7,0,0,1,4.2-.3c2.7,0,4.4.5,5.7,1.5a6.1,6.1,0,0,1,2.4,5.2,7,7,0,0,1-2.3,5.6,10.1,10.1,0,0,1-6.4,1.8l-3.6-.2Z" transform="translate(-1692.1 487.5)"/>
  <path class="cls-2" d="M1865.2-470.3h3.1v10.1h-3.1Zm3.2-2.8a1.6,1.6,0,0,1-1.7,1.6,1.6,1.6,0,0,1-1.6-1.6,1.5,1.5,0,0,1,1.7-1.5,1.4,1.4,0,0,1,1.6,1.5" transform="translate(-1692.1 487.5)"/>
  <path class="cls-2" d="M1873.4-465.3c0,1.8.7,3.1,2,3.1s2-1.2,2-3.1-.5-3-2-3-2,1.6-2,3m7.3-.1a5.1,5.1,0,0,1-5.4,5.4,4.9,4.9,0,0,1-5.2-5.2,5.1,5.1,0,0,1,5.4-5.3,4.9,4.9,0,0,1,5.2,5.1" transform="translate(-1692.1 487.5)"/>
  <path class="cls-2" d="M1882.5-463a5.1,5.1,0,0,0,2.7.8c.9,0,1.3-.3,1.3-.8s-.3-.8-1.5-1.2-2.9-1.8-2.8-3,1.6-3.3,4-3.3a7,7,0,0,1,2.9.6l-.6,2.1a5.5,5.5,0,0,0-2.2-.5c-.7,0-1.1.3-1.1.8s.3.7,1.6,1.1,2.7,1.7,2.7,3.1-1.5,3.3-4.3,3.3a7.4,7.4,0,0,1-3.3-.7Z" transform="translate(-1692.1 487.5)"/>
  <path class="cls-2" d="M1743.7-480a3.4,3.4,0,0,1-1.7.3,3,3,0,0,1-3.2-3.2,3.2,3.2,0,0,1,3.4-3.3,4,4,0,0,1,1.5.2l-.2.7a4.2,4.2,0,0,0-1.3-.3,2.4,2.4,0,0,0-2.5,2.7,2.4,2.4,0,0,0,2.5,2.6,2.5,2.5,0,0,0,1.3-.3Z" transform="translate(-1692.1 487.5)"/>
  <path class="cls-2" d="M1745-482.9c0,1.4.8,2.6,2.1,2.6s2-1.2,2-2.7-.7-2.6-2-2.6-2.1,1.3-2.1,2.7m5-.1c0,2.2-1.4,3.4-3,3.4a3,3,0,0,1-2.9-3.3,3,3,0,0,1,3-3.3c1.8,0,2.9,1.3,2.9,3.2" transform="translate(-1692.1 487.5)"/>
  <polygon class="cls-2" points="58.9 1.4 59.8 1.4 59.8 7.1 62.5 7.1 62.5 7.8 58.9 7.8 58.9 1.4"/>
  <polygon class="cls-2" points="66.7 4.8 64.2 4.8 64.2 7.1 67 7.1 67 7.8 63.4 7.8 63.4 1.4 66.9 1.4 66.9 2.1 64.2 2.1 64.2 4.1 66.7 4.1 66.7 4.8"/>
  <path class="cls-2" d="M1765.1-480a7.7,7.7,0,0,1-2,.3,3.2,3.2,0,0,1-2.4-.8,3.7,3.7,0,0,1-.9-2.4,3.2,3.2,0,0,1,3.5-3.3,5,5,0,0,1,1.6.3l-.2.7a2.9,2.9,0,0,0-1.4-.3,2.4,2.4,0,0,0-2.6,2.6,2.3,2.3,0,0,0,2.5,2.5h1.1v-1.9H1763v-.7h2.1Z" transform="translate(-1692.1 487.5)"/>
  <rect class="cls-2" x="74.2" y="1.4" width="0.8" height="6.4"/>
  <path class="cls-2" d="M1769.1-482.9c0,1.4.7,2.6,2,2.6s2.1-1.2,2.1-2.7-.7-2.6-2-2.6-2.1,1.3-2.1,2.7m5-.1c0,2.2-1.4,3.4-3,3.4a3,3,0,0,1-2.9-3.3,3,3,0,0,1,3-3.3,2.9,2.9,0,0,1,2.9,3.2" transform="translate(-1692.1 487.5)"/>
  <polygon class="cls-2" points="88.3 4.8 85.9 4.8 85.9 7.1 88.6 7.1 88.6 7.8 85 7.8 85 1.4 88.5 1.4 88.5 2.1 85.9 2.1 85.9 4.1 88.3 4.1 88.3 4.8"/>
  <path class="cls-2" d="M1781.7-480.8a2.5,2.5,0,0,0,1.5.5,1.2,1.2,0,0,0,1.3-1.1c0-.6-.3-1-1.2-1.3s-1.7-.9-1.7-1.8.9-1.7,2.1-1.7a2.6,2.6,0,0,1,1.4.3l-.2.6a3,3,0,0,0-1.2-.3,1.1,1.1,0,0,0-1.2,1c0,.6.3.9,1.2,1.2s1.7,1,1.7,1.9-.8,1.8-2.3,1.8a2.5,2.5,0,0,1-1.6-.4Z" transform="translate(-1692.1 487.5)"/>
  <path class="cls-2" d="M1787.3-483h.7c1,0,1.6-.5,1.6-1.4s-.6-1.2-1.5-1.2h-.8Zm-.8-3.1h1.6a3,3,0,0,1,1.8.5,2,2,0,0,1,.5,1.4,1.4,1.4,0,0,1-.5,1.3,2.4,2.4,0,0,1-1.9.7h-.7v2.6h-.8Z" transform="translate(-1692.1 487.5)"/>
  <polygon class="cls-2" points="102.7 4.8 100.2 4.8 100.2 7.1 103 7.1 103 7.8 99.4 7.8 99.4 1.4 102.9 1.4 102.9 2.1 100.2 2.1 100.2 4.1 102.7 4.1 102.7 4.8"/>
  <path class="cls-2" d="M1800.7-480a3.4,3.4,0,0,1-1.7.3,3,3,0,0,1-3.2-3.2,3.2,3.2,0,0,1,3.4-3.3,4,4,0,0,1,1.5.2l-.2.7a4.2,4.2,0,0,0-1.3-.3,2.4,2.4,0,0,0-2.5,2.7,2.4,2.4,0,0,0,2.5,2.6,2.5,2.5,0,0,0,1.3-.3Z" transform="translate(-1692.1 487.5)"/>
  <rect class="cls-2" x="109.6" y="1.4" width="0.8" height="6.4"/>
  <path class="cls-2" d="M1807.1-482.4l-.6-1.8a3,3,0,0,1-.3-1.2h-.1l-.3,1.1-.6,1.9Zm-2.1.6-.7,2.1h-.8l2.2-6.4h1l2.1,6.4h-.8l-.7-2.1Z" transform="translate(-1692.1 487.5)"/>
  <polygon class="cls-2" points="117.7 1.4 118.5 1.4 118.5 7.1 121.2 7.1 121.2 7.8 117.7 7.8 117.7 1.4"/>
  <path class="cls-2" d="M1820.7-480a3.2,3.2,0,0,1-1.6.3,3,3,0,0,1-3.2-3.2,3.1,3.1,0,0,1,3.3-3.3l1.6.2-.2.7a5,5,0,0,0-1.3-.3,2.4,2.4,0,0,0-2.5,2.7,2.4,2.4,0,0,0,2.4,2.6,3.2,3.2,0,0,0,1.4-.3Z" transform="translate(-1692.1 487.5)"/>
  <path class="cls-2" d="M1822.6-483.1h.8a1.3,1.3,0,0,0,1.5-1.3c0-.8-.6-1.1-1.5-1.2h-.8Zm-.8-3h1.6a3,3,0,0,1,1.8.5,1.8,1.8,0,0,1,.5,1.2,1.7,1.7,0,0,1-1.2,1.7h0a1.7,1.7,0,0,1,1,1.3c.2.9.3,1.5.4,1.8h-.8a5.8,5.8,0,0,1-.4-1.6c-.2-.9-.6-1.2-1.3-1.2h-.8v2.8h-.8Z" transform="translate(-1692.1 487.5)"/>
  <rect class="cls-2" x="134.8" y="1.4" width="0.8" height="6.4"/>
  <path class="cls-2" d="M1830-483h.7c1,0,1.6-.5,1.6-1.4s-.6-1.2-1.5-1.2h-.8Zm-.9-3.1h1.6a2.8,2.8,0,0,1,1.8.5,1.7,1.7,0,0,1,.6,1.4,1.7,1.7,0,0,1-.5,1.3,2.6,2.6,0,0,1-2,.7h-.6v2.6h-.9Z" transform="translate(-1692.1 487.5)"/>
  <rect class="cls-2" x="39.8" width="1.4" height="32.98"/>
  <path class="cls-3" d="M1710.6-452.8h-.4a.9.9,0,0,0-.9-1,.9.9,0,0,0-.9.6,7,7,0,0,1-2.4-1.3.6.6,0,0,0,.1-.4.9.9,0,0,0-.9-1h-.3a1,1,0,0,1-.4-.5.9.9,0,0,0,.3-.7.9.9,0,0,0-.9-1,5.7,5.7,0,0,1-.1-1.3,4.9,4.9,0,0,1,.1-1.2h0a.9.9,0,0,0,.9-.9,1.2,1.2,0,0,0-.4-.8l.4-.5h.4a.9.9,0,0,0,.9-.9.8.8,0,0,0-.2-.5,5.8,5.8,0,0,1,2.4-1.4,1,1,0,0,0,1,.7.9.9,0,0,0,.9-1h.8a.9.9,0,0,0,1,1,.9.9,0,0,0,.9-.7,5.9,5.9,0,0,1,2.3,1.4.7.7,0,0,0-.1.5.9.9,0,0,0,1,.9h.3l.4.6a.9.9,0,0,0-.3.7.9.9,0,0,0,.8.9,4.9,4.9,0,0,1,.1,1.2,5.7,5.7,0,0,1-.1,1.3,1,1,0,0,0-.8,1,1.4,1.4,0,0,0,.2.6l-.4.6h-.2a.9.9,0,0,0-1,1,.6.6,0,0,0,.1.4,7.6,7.6,0,0,1-2.3,1.3,1,1,0,0,0-.9-.6c-.6,0-.9.4-1,1h-.4m3.8-16.5a.6.6,0,0,1,.8-.4,2.5,2.5,0,0,0,2,.9,2.1,2.1,0,0,0,2-1.9,2.4,2.4,0,0,0-1.8-2.4,6,6,0,0,0-5.1.3v-2.3h3.5v-3.4h-3.5V-482h-3.4v3.5h-3.6v3.4h3.6v2.2a6.2,6.2,0,0,0-5-.2,2.3,2.3,0,0,0-1.7,2.4,2.1,2.1,0,0,0,2,1.9,2.7,2.7,0,0,0,2-.9.7.7,0,0,1,.8.4,10.7,10.7,0,0,0-6.8,9.8,10.6,10.6,0,0,0,10.5,10.5,10.5,10.5,0,0,0,10.4-10.5,10.5,10.5,0,0,0-6.7-9.8" transform="translate(-1692.1 487.5)"/>
  <path class="cls-3" d="M1707.9-462.8a.9.9,0,0,0,.9-.9.9.9,0,0,0-.9-1,.9.9,0,0,0-1,1,.9.9,0,0,0,1,.9" transform="translate(-1692.1 487.5)"/>
  <path class="cls-3" d="M1710.6-462.8a1,1,0,0,0,1-.9,1,1,0,0,0-1-1,.9.9,0,0,0-1,1,.9.9,0,0,0,1,.9" transform="translate(-1692.1 487.5)"/>
  <path class="cls-3" d="M1713.4-462.8a.9.9,0,0,0,.9-.9.9.9,0,0,0-.9-1,1,1,0,0,0-1.1,1,1,1,0,0,0,1.1.9" transform="translate(-1692.1 487.5)"/>
  <path class="cls-3" d="M1706.6-460.6a.9.9,0,0,0,.9-.9.9.9,0,0,0-.9-1,.9.9,0,0,0-1,1,.9.9,0,0,0,1,.9" transform="translate(-1692.1 487.5)"/>
  <path class="cls-3" d="M1708.3-461.5a.9.9,0,0,0,1,.9.9.9,0,0,0,.9-.9.9.9,0,0,0-.9-1,.9.9,0,0,0-1,1" transform="translate(-1692.1 487.5)"/>
  <path class="cls-3" d="M1711-461.5a.9.9,0,0,0,1,.9.9.9,0,0,0,.9-.9.9.9,0,0,0-.9-1,.9.9,0,0,0-1,1" transform="translate(-1692.1 487.5)"/>
  <path class="cls-3" d="M1713.7-461.5c0,.5.4.9,1.1.9a.9.9,0,0,0,.9-.9.9.9,0,0,0-.9-1,1,1,0,0,0-1.1,1" transform="translate(-1692.1 487.5)"/>
  <path class="cls-3" d="M1706.1-459.2a.9.9,0,0,0-.9-1,.9.9,0,0,0-1,1,.9.9,0,0,0,1,.9.9.9,0,0,0,.9-.9" transform="translate(-1692.1 487.5)"/>
  <path class="cls-3" d="M1707.9-460.2a.9.9,0,0,0-1,1,.9.9,0,0,0,1,.9.9.9,0,0,0,.9-.9.9.9,0,0,0-.9-1" transform="translate(-1692.1 487.5)"/>
  <path class="cls-3" d="M1710.6-460.2a.9.9,0,0,0-1,1,.9.9,0,0,0,1,.9,1,1,0,0,0,1-.9,1,1,0,0,0-1-1" transform="translate(-1692.1 487.5)"/>
  <path class="cls-3" d="M1714.3-459.2a.9.9,0,0,0-.9-1,1,1,0,0,0-1.1,1,1,1,0,0,0,1.1.9.9.9,0,0,0,.9-.9" transform="translate(-1692.1 487.5)"/>
  <path class="cls-3" d="M1715.1-459.2a.9.9,0,0,0,1,.9.9.9,0,0,0,.9-.9.9.9,0,0,0-.9-1,.9.9,0,0,0-1,1" transform="translate(-1692.1 487.5)"/>
  <path class="cls-3" d="M1707.5-457.1a.9.9,0,0,0-.9-1,.9.9,0,0,0-1,1,.9.9,0,0,0,1,.9.9.9,0,0,0,.9-.9" transform="translate(-1692.1 487.5)"/>
  <path class="cls-3" d="M1710.2-457.1a.9.9,0,0,0-.9-1,.9.9,0,0,0-1,1,.9.9,0,0,0,1,.9.9.9,0,0,0,.9-.9" transform="translate(-1692.1 487.5)"/>
  <path class="cls-3" d="M1712.9-457.1a.9.9,0,0,0-.9-1,.9.9,0,0,0-1,1,.9.9,0,0,0,1,.9.9.9,0,0,0,.9-.9" transform="translate(-1692.1 487.5)"/>
  <path class="cls-3" d="M1714.8-458.1a1,1,0,0,0-1.1,1c0,.5.4.9,1.1.9a.9.9,0,0,0,.9-.9.9.9,0,0,0-.9-1" transform="translate(-1692.1 487.5)"/>
  <path class="cls-3" d="M1707.9-455.9a.9.9,0,0,0-1,1,.9.9,0,0,0,1,.9.9.9,0,0,0,.9-.9.9.9,0,0,0-.9-1" transform="translate(-1692.1 487.5)"/>
  <path class="cls-3" d="M1711.6-454.9a1,1,0,0,0-1-1,.9.9,0,0,0-1,1,.9.9,0,0,0,1,.9,1,1,0,0,0,1-.9" transform="translate(-1692.1 487.5)"/>
  <path class="cls-3" d="M1713.4-455.9a1,1,0,0,0-1.1,1,1,1,0,0,0,1.1.9.9.9,0,0,0,.9-.9.9.9,0,0,0-.9-1" transform="translate(-1692.1 487.5)"/>
  <path class="cls-3" d="M1724-455.2a3.1,3.1,0,0,0-2.3,2.8,3.7,3.7,0,0,1-1.2.7,3.9,3.9,0,0,1-1.3.2,10.6,10.6,0,0,0,2.4-3.9,8.3,8.3,0,0,1,1.8-1.3c2.2-.7,3.4-1.6,4-2.7s1-3.4,1.8-4.7c-2.5.4-5.4,2.2-6.1,6.7a6.8,6.8,0,0,1-1.2,1.2,12.6,12.6,0,0,0,.5-3.3,16.4,16.4,0,0,0-.2-2.2c1.1,0,2.1-.6,2.8-2.2s1.5-4.3,2.2-4.8c-3.9.3-6.7,2.1-5.6,6.9h.1a17.9,17.9,0,0,1,.2,2.3,10.3,10.3,0,0,1-.6,3.5h0a12.3,12.3,0,0,1-3.2,4.9,11.2,11.2,0,0,0,2.6,0c1-.2,3.6-.7,4.6-1.4s1.9-2.6,3.2-4.1c-1.9.8-3.1.7-4.5,1.3" transform="translate(-1692.1 487.5)"/>
  <path class="cls-3" d="M1697.4-455.2a3.4,3.4,0,0,1,2.3,2.8c.1.3,1,.6,1.2.7a3.5,3.5,0,0,0,1.3.2,12.4,12.4,0,0,1-2.5-3.9,7.6,7.6,0,0,0-1.7-1.3,7,7,0,0,1-4.1-2.7c-.7-1.4-1-3.4-1.8-4.7,2.5.4,5.4,2.2,6.1,6.7a13.5,13.5,0,0,0,1.2,1.2,12.4,12.4,0,0,1-.4-3.3,16.4,16.4,0,0,1,.2-2.2c-1.1,0-2.1-.6-2.8-2.2s-1.6-4.3-2.2-4.8c3.9.3,6.6,2.1,5.5,6.9h0a9,9,0,0,0-.2,2.3,13.4,13.4,0,0,0,.5,3.5h0a.1.1,0,0,0,.1.1,11.3,11.3,0,0,0,3.2,4.9,12,12,0,0,1-2.7,0c-1-.2-3.6-.7-4.5-1.4s-1.9-2.6-3.2-4.1c1.8.8,3.1.7,4.5,1.3" transform="translate(-1692.1 487.5)"/>
</svg>
