<svg id="Capa_1" data-name="Capa 1" xmlns="http://www.w3.org/2000/svg" viewBox="0 0 197.5 44">
  <defs>
    <style>
      .cls-1 {
        fill: #b1132f;
      }

      .cls-2, .cls-3 {
        fill: #293f89;
      }

      .cls-3 {
        fill-rule: evenodd;
      }
    </style>
  </defs>
  <title>copi</title>
  <path class="cls-1" d="M1567.3-768.7h.4c.6,0,.9-.3.9-.8a.7.7,0,0,0-.8-.7h-.5Zm-1.1-2.2h1.5a2.1,2.1,0,0,1,1.5.4,1.3,1.3,0,0,1,.5,1.1,2.1,2.1,0,0,1-.4,1.2,2.8,2.8,0,0,1-1.6.5h-.4v1.7h-1.1Z" transform="translate(-1519.5 807.3)"/>
  <rect class="cls-1" x="50.9" y="36.4" width="1.1" height="4.83"/>
  <path class="cls-1" d="M1573.5-771v2.8c0,.9.3,1.3.9,1.3s.9-.4.9-1.3V-771h1.1v2.8a2,2,0,0,1-2,2.2c-1.2,0-2-.7-2-2.3V-771Z" transform="translate(-1519.5 807.3)"/>
  <path class="cls-1" d="M1578.4-768.8h.4c.6,0,.9-.3.9-.7a.7.7,0,0,0-.8-.7h-.5Zm-1.1-2.1h1.5a2.5,2.5,0,0,1,1.6.4,1.5,1.5,0,0,1,.4,1,1.3,1.3,0,0,1-.9,1.2h0a1.3,1.3,0,0,1,.7.9,6.2,6.2,0,0,0,.4,1.4h-1.1l-.4-1.1c-.1-.6-.3-.8-.8-.8h-.3v1.9h-1.1Z" transform="translate(-1519.5 807.3)"/>
  <path class="cls-1" d="M1584-768.2l-.3-1a2.9,2.9,0,0,1-.2-.9h-.1a2.9,2.9,0,0,1-.2.9l-.3,1Zm-1.2.8-.4,1.3h-1.1l1.5-4.9h1.4l1.5,4.9h-1.2l-.3-1.3Z" transform="translate(-1519.5 807.3)"/>
  <rect class="cls-1" x="68.5" y="35.8" width="0.3" height="7.17"/>
  <path class="cls-1" d="M1591.5-768.5h.6c.9,0,1.4-.4,1.4-1.2s-.6-1.1-1.3-1.1h-.7Zm-.4-2.4h1.1a1.9,1.9,0,0,1,1.2.4,1.2,1.2,0,0,1,.4,1,1.2,1.2,0,0,1-.3.9,1.7,1.7,0,0,1-1.4.6h-.6v2.1h-.4Z" transform="translate(-1519.5 807.3)"/>
  <polygon class="cls-1" points="77.5 38.8 75.5 38.8 75.5 40.9 77.7 40.9 77.7 41.2 75.2 41.2 75.2 36.4 77.6 36.4 77.6 36.6 75.5 36.6 75.5 38.5 77.5 38.5 77.5 38.8"/>
  <path class="cls-1" d="M1598.4-768.6h.8a1.1,1.1,0,0,0,1.2-1.1c0-.7-.5-1-1.3-1h-.7Zm-.3-2.3h1c.7,0,1.1.1,1.3.4a1.3,1.3,0,0,1,.4.9,1.3,1.3,0,0,1-1,1.2h0c.4.1.6.4.8,1a4.9,4.9,0,0,0,.3,1.3h-.3a5,5,0,0,1-.3-1.2c-.2-.7-.5-1-1.1-1h-.8v2.2h-.3Z" transform="translate(-1519.5 807.3)"/>
  <path class="cls-1" d="M1604.3-772l-.9.8h-.3l.7-.8Zm-2.3,1v3c0,1.2.6,1.7,1.3,1.7s1.4-.5,1.4-1.7v-3h.3v2.9c0,1.5-.8,2.1-1.7,2.1s-1.6-.5-1.6-2v-3Z" transform="translate(-1519.5 807.3)"/>
  <rect class="cls-1" x="39.9" y="33" width="1.4" height="10.99"/>
  <path class="cls-2" d="M1566.8-783.2a8.2,8.2,0,0,0,3.5.8c1.4,0,2.2-.6,2.2-1.5s-.7-1.3-2.4-1.9-3.8-2.1-3.8-4.1,2-4.2,5.3-4.2a9.8,9.8,0,0,1,3.5.7l-.7,2.6a5.8,5.8,0,0,0-2.9-.7c-1.3,0-2,.6-2,1.3s.8,1.3,2.6,2,3.6,2.2,3.6,4.1-1.8,4.3-5.6,4.3a9.1,9.1,0,0,1-3.9-.8Z" transform="translate(-1519.5 807.3)"/>
  <path class="cls-2" d="M1583.1-784.7c-1.7-.1-2.9.3-2.9,1.5a1.1,1.1,0,0,0,1.2,1.2,1.7,1.7,0,0,0,1.6-1.1,1.3,1.3,0,0,0,.1-.6Zm.4,4.7-.2-1h-.1a3.6,3.6,0,0,1-2.9,1.2,3.1,3.1,0,0,1-3.2-3.1c0-2.6,2.3-3.8,5.9-3.8h0c0-.6-.3-1.3-1.8-1.3a5.5,5.5,0,0,0-2.8.7l-.6-2a8.2,8.2,0,0,1,3.9-.9c3.4,0,4.4,2,4.4,4.4v3.5a15.4,15.4,0,0,0,.2,2.4Z" transform="translate(-1519.5 807.3)"/>
  <path class="cls-2" d="M1588.5-786.8a29.2,29.2,0,0,0-.1-3.2h2.7l.2,1.3h0a3.9,3.9,0,0,1,3.1-1.6c2.1,0,3.6,1.4,3.6,4.3v6h-3.1v-5.6c0-1.3-.4-2.1-1.6-2.1a1.9,1.9,0,0,0-1.6,1.1c0,.2-.1.5-.1.8v5.8h-3.1Z" transform="translate(-1519.5 807.3)"/>
  <path class="cls-2" d="M1607.3-793.9h3.1v8.8c0,4-1.9,5.3-4.9,5.3a8.5,8.5,0,0,1-2.3-.3l.4-2.5,1.6.2c1.3,0,2.1-.6,2.1-2.7Z" transform="translate(-1519.5 807.3)"/>
  <path class="cls-2" d="M1622.3-783.2c0,1.3.1,2.4.1,3.2h-2.7l-.2-1.4h0a3.7,3.7,0,0,1-3.2,1.6c-2,0-3.5-1.2-3.5-4.3V-790h3.1v5.4c0,1.4.5,2.3,1.6,2.3a1.7,1.7,0,0,0,1.6-1.1c0-.2.1-.4.1-.7V-790h3.1Z" transform="translate(-1519.5 807.3)"/>
  <path class="cls-2" d="M1630.1-784.7c-1.7-.1-3,.3-3,1.5a1.2,1.2,0,0,0,1.3,1.2,1.7,1.7,0,0,0,1.6-1.1c0-.2.1-.4.1-.6Zm.3,4.7-.2-1h0a3.7,3.7,0,0,1-2.9,1.2,3.1,3.1,0,0,1-3.2-3.1c0-2.6,2.3-3.8,5.9-3.8h0c0-.6-.3-1.3-1.9-1.3a5.4,5.4,0,0,0-2.7.7l-.6-2a8.2,8.2,0,0,1,3.9-.9c3.3,0,4.4,2,4.4,4.4v3.5a17,17,0,0,0,.1,2.4Z" transform="translate(-1519.5 807.3)"/>
  <path class="cls-2" d="M1635.5-786.8c0-1.3-.1-2.4-.1-3.2h2.7v1.3h.1a3.7,3.7,0,0,1,3.1-1.6c2.1,0,3.6,1.4,3.6,4.3v6h-3.1v-5.6c0-1.3-.5-2.1-1.6-2.1a1.7,1.7,0,0,0-1.6,1.1,1.9,1.9,0,0,0-.1.8v5.8h-3.1Z" transform="translate(-1519.5 807.3)"/>
  <path class="cls-2" d="M1658.1-785.8a.7.7,0,0,0-.1-.5,1.8,1.8,0,0,0-1.8-1.6c-1.4,0-2.1,1.3-2.1,2.9s.8,2.7,2.1,2.7a1.8,1.8,0,0,0,1.8-1.5,1.5,1.5,0,0,0,.1-.7Zm3.1-8.8V-783a26.3,26.3,0,0,0,.1,3h-2.8v-1.5h-.1a3.3,3.3,0,0,1-3.1,1.7c-2.4,0-4.3-2-4.3-5.1s2.1-5.4,4.5-5.4a3,3,0,0,1,2.6,1.2h.1v-5.5Z" transform="translate(-1519.5 807.3)"/>
  <path class="cls-2" d="M1669.7-786.2a1.8,1.8,0,0,0-1.8-2,2,2,0,0,0-1.9,2ZM1666-784c.1,1.3,1.4,1.9,2.9,1.9a11,11,0,0,0,2.7-.4l.4,2.1a9.7,9.7,0,0,1-3.6.6c-3.4,0-5.4-2-5.4-5.1s1.6-5.4,5.1-5.4,4.5,2.6,4.5,5c0,.6-.1,1-.1,1.3Z" transform="translate(-1519.5 807.3)"/>
  <path class="cls-2" d="M1681.7-782.4h1.1c2.8,0,4.6-1.5,4.6-4.8s-1.6-4.4-4.3-4.4h-1.4Zm-3.2-11.3a27.2,27.2,0,0,1,4.3-.3c2.6,0,4.3.5,5.6,1.5a6.1,6.1,0,0,1,2.4,5.2,7.4,7.4,0,0,1-2.3,5.7c-1.5,1.2-3.7,1.7-6.4,1.7l-3.6-.2Z" transform="translate(-1519.5 807.3)"/>
  <path class="cls-2" d="M1692.7-790h3.1v10h-3.1Zm3.2-2.8a1.5,1.5,0,0,1-1.7,1.5,1.6,1.6,0,0,1-1.6-1.5,1.6,1.6,0,0,1,1.7-1.6,1.5,1.5,0,0,1,1.6,1.6" transform="translate(-1519.5 807.3)"/>
  <path class="cls-2" d="M1700.9-785c0,1.7.7,3,2,3s2-1.2,2-3-.5-3.1-2-3.1-2,1.6-2,3.1m7.3-.1a5,5,0,0,1-5.3,5.3,4.9,4.9,0,0,1-5.2-5.1,5,5,0,0,1,5.3-5.4,4.9,4.9,0,0,1,5.2,5.2" transform="translate(-1519.5 807.3)"/>
  <path class="cls-2" d="M1710-782.7a6.2,6.2,0,0,0,2.7.7c.9,0,1.3-.3,1.3-.8s-.3-.8-1.5-1.2-2.9-1.8-2.8-3,1.6-3.3,4.1-3.3a6.9,6.9,0,0,1,2.8.6l-.6,2.2a4,4,0,0,0-2.1-.6c-.8,0-1.2.3-1.2.8s.4.7,1.6,1.2,2.7,1.6,2.7,3.1-1.5,3.2-4.3,3.2a7.4,7.4,0,0,1-3.3-.7Z" transform="translate(-1519.5 807.3)"/>
  <rect class="cls-2" x="39.9" width="1.4" height="32.98"/>
  <path class="cls-3" d="M1538-772.7h-.4a.9.9,0,0,0-.9-1,1,1,0,0,0-.9.7,5.9,5.9,0,0,1-2.3-1.4v-.4a.9.9,0,0,0-.9-1h-.3l-.4-.6a.9.9,0,0,0,.3-.6,1.1,1.1,0,0,0-.9-1.1,5.3,5.3,0,0,1-.1-1.3,4.1,4.1,0,0,1,.1-1.1h0a.9.9,0,0,0,.9-.9,1,1,0,0,0-.3-.8l.3-.6h.4a.9.9,0,0,0,.9-.9,1.3,1.3,0,0,0-.1-.6,7.2,7.2,0,0,1,2.4-1.4.9.9,0,0,0,.9.7,1,1,0,0,0,1-.9h.7a1,1,0,0,0,1.1.9.8.8,0,0,0,.8-.7,7.2,7.2,0,0,1,2.4,1.4,1.4,1.4,0,0,0-.2.6.9.9,0,0,0,1,.9h.3l.4.6a1.1,1.1,0,0,0-.3.8.9.9,0,0,0,.8.9,3.7,3.7,0,0,1,.1,1.1,6.6,6.6,0,0,1-.1,1.4.9.9,0,0,0-.8,1,.8.8,0,0,0,.2.5l-.3.7h-.3a.9.9,0,0,0-1,1c0,.2,0,.3.1.4a6.5,6.5,0,0,1-2.3,1.3,1,1,0,0,0-.8-.6.9.9,0,0,0-1,1h-.5m3.8-16.4a.6.6,0,0,1,.8-.5,2.7,2.7,0,0,0,2,.9,2,2,0,0,0,2-1.9,2.4,2.4,0,0,0-1.7-2.4,6.2,6.2,0,0,0-5.2.3v-2.2h3.5v-3.5h-3.5v-3.4h-3.4v3.4h-3.6v3.5h3.6v2.2a5.7,5.7,0,0,0-5-.3,2.4,2.4,0,0,0-1.7,2.4,2,2,0,0,0,2,1.9,2.7,2.7,0,0,0,2-.9.6.6,0,0,1,.8.5,10.5,10.5,0,0,0-6.7,9.8,10.5,10.5,0,0,0,10.4,10.4,10.4,10.4,0,0,0,10.4-10.4,10.3,10.3,0,0,0-6.7-9.8" transform="translate(-1519.5 807.3)"/>
  <path class="cls-3" d="M1535.3-782.6a.9.9,0,0,0,1-.9.9.9,0,0,0-1-1,.9.9,0,0,0-1,1,.9.9,0,0,0,1,.9" transform="translate(-1519.5 807.3)"/>
  <path class="cls-3" d="M1538.1-782.6a.9.9,0,0,0,.9-.9.9.9,0,0,0-.9-1,.9.9,0,0,0-1,1,.9.9,0,0,0,1,.9" transform="translate(-1519.5 807.3)"/>
  <path class="cls-3" d="M1540.8-782.6a.9.9,0,0,0,.9-.9.9.9,0,0,0-.9-1,.9.9,0,0,0-1,1,.9.9,0,0,0,1,.9" transform="translate(-1519.5 807.3)"/>
  <path class="cls-3" d="M1534-780.4a.9.9,0,0,0,.9-.9.9.9,0,0,0-.9-1,.9.9,0,0,0-1,1,.9.9,0,0,0,1,.9" transform="translate(-1519.5 807.3)"/>
  <path class="cls-3" d="M1535.7-781.3a.9.9,0,0,0,1,.9,1,1,0,0,0,1-.9,1,1,0,0,0-1-1,.9.9,0,0,0-1,1" transform="translate(-1519.5 807.3)"/>
  <path class="cls-3" d="M1538.4-781.3a1,1,0,0,0,1.1.9.9.9,0,0,0,.9-.9.9.9,0,0,0-.9-1,1,1,0,0,0-1.1,1" transform="translate(-1519.5 807.3)"/>
  <path class="cls-3" d="M1541.2-781.3a.9.9,0,0,0,1,.9.9.9,0,0,0,.9-.9.9.9,0,0,0-.9-1,.9.9,0,0,0-1,1" transform="translate(-1519.5 807.3)"/>
  <path class="cls-3" d="M1533.5-779.1a.9.9,0,0,0-.9-1,.9.9,0,0,0-1,1,.9.9,0,0,0,1,.9.9.9,0,0,0,.9-.9" transform="translate(-1519.5 807.3)"/>
  <path class="cls-3" d="M1535.3-780.1a.9.9,0,0,0-1,1,.9.9,0,0,0,1,.9.9.9,0,0,0,1-.9.9.9,0,0,0-1-1" transform="translate(-1519.5 807.3)"/>
  <path class="cls-3" d="M1538.1-780.1a.9.9,0,0,0-1,1,.9.9,0,0,0,1,.9.9.9,0,0,0,.9-.9.9.9,0,0,0-.9-1" transform="translate(-1519.5 807.3)"/>
  <path class="cls-3" d="M1541.7-779.1a.9.9,0,0,0-.9-1,.9.9,0,0,0-1,1,.9.9,0,0,0,1,.9.9.9,0,0,0,.9-.9" transform="translate(-1519.5 807.3)"/>
  <path class="cls-3" d="M1542.5-779.1a.9.9,0,0,0,1,.9.9.9,0,0,0,.9-.9.9.9,0,0,0-.9-1,.9.9,0,0,0-1,1" transform="translate(-1519.5 807.3)"/>
  <path class="cls-3" d="M1534.9-776.9c0-.7-.4-1.1-.9-1.1a1,1,0,0,0-1,1.1.9.9,0,0,0,1,.9.9.9,0,0,0,.9-.9" transform="translate(-1519.5 807.3)"/>
  <path class="cls-3" d="M1537.7-776.9a1,1,0,0,0-1-1.1,1,1,0,0,0-1,1.1.9.9,0,0,0,1,.9,1,1,0,0,0,1-.9" transform="translate(-1519.5 807.3)"/>
  <path class="cls-3" d="M1540.4-776.9c0-.7-.4-1.1-.9-1.1a1,1,0,0,0-1.1,1.1,1,1,0,0,0,1.1.9.9.9,0,0,0,.9-.9" transform="translate(-1519.5 807.3)"/>
  <path class="cls-3" d="M1542.2-778a1,1,0,0,0-1,1.1.9.9,0,0,0,1,.9.9.9,0,0,0,.9-.9c0-.7-.4-1.1-.9-1.1" transform="translate(-1519.5 807.3)"/>
  <path class="cls-3" d="M1535.3-775.8a.9.9,0,0,0-1,1,1,1,0,0,0,1,1,1,1,0,0,0,1-1,.9.9,0,0,0-1-1" transform="translate(-1519.5 807.3)"/>
  <path class="cls-3" d="M1539-774.8a.9.9,0,0,0-.9-1,.9.9,0,0,0-1,1,1,1,0,0,0,1,1,1,1,0,0,0,.9-1" transform="translate(-1519.5 807.3)"/>
  <path class="cls-3" d="M1540.8-775.8a.9.9,0,0,0-1,1,1,1,0,0,0,1,1,1,1,0,0,0,.9-1,.9.9,0,0,0-.9-1" transform="translate(-1519.5 807.3)"/>
  <path class="cls-3" d="M1551.4-775.1a3.4,3.4,0,0,0-2.3,2.8c-.2.4-1,.7-1.2.8a3.9,3.9,0,0,1-1.3.2,12.8,12.8,0,0,0,2.5-4l1.7-1.2c2.2-.8,3.4-1.6,4.1-2.8s.9-3.3,1.8-4.6c-2.5.4-5.4,2.1-6.2,6.6a3.4,3.4,0,0,1-1.2,1.2,11.3,11.3,0,0,0,.5-3.2,16.4,16.4,0,0,0-.2-2.3c1.1.1,2.1-.6,2.8-2.1s1.6-4.4,2.2-4.8c-3.9.2-6.7,2.1-5.5,6.9h0a16.4,16.4,0,0,1,.2,2.3,13.4,13.4,0,0,1-.5,3.5h-.1a11,11,0,0,1-3.2,4.8,8.1,8.1,0,0,0,2.7,0c1-.2,3.6-.7,4.5-1.4s1.9-2.6,3.2-4.1c-1.9.8-3.1.7-4.5,1.3" transform="translate(-1519.5 807.3)"/>
  <path class="cls-3" d="M1524.8-775.1a3.4,3.4,0,0,1,2.3,2.8c.2.4,1,.7,1.2.8a3.9,3.9,0,0,0,1.3.2,12.8,12.8,0,0,1-2.5-4l-1.7-1.2c-2.2-.8-3.4-1.6-4.1-2.8s-.9-3.3-1.8-4.6c2.5.4,5.4,2.1,6.2,6.6.2.5,1,1,1.2,1.2a11.3,11.3,0,0,1-.5-3.2,16.4,16.4,0,0,1,.2-2.3c-1.1.1-2.1-.6-2.8-2.1s-1.6-4.4-2.2-4.8c3.9.2,6.7,2.1,5.5,6.9h0a16.4,16.4,0,0,0-.2,2.3,13.4,13.4,0,0,0,.5,3.5h.1a11.9,11.9,0,0,0,3.2,4.8,7.4,7.4,0,0,1-2.6,0c-1-.2-3.7-.7-4.6-1.4s-1.9-2.6-3.2-4.1c1.9.8,3.1.7,4.5,1.3" transform="translate(-1519.5 807.3)"/>
  <g>
    <path class="cls-2" d="M1571.2-799.7l-1.6.2a2.7,2.7,0,0,1-3-3,3,3,0,0,1,3.1-3.2,4,4,0,0,1,1.5.2l-.2.7a2.1,2.1,0,0,0-1.2-.3,2.2,2.2,0,0,0-2.4,2.5,2.2,2.2,0,0,0,2.3,2.5,2.5,2.5,0,0,0,1.3-.3Z" transform="translate(-1519.5 807.3)"/>
    <path class="cls-2" d="M1577.2-802.6a2.9,2.9,0,0,1-2.9,3.2,2.8,2.8,0,0,1-2.7-3.1c0-2,1.2-3.2,2.8-3.2S1577.2-804.5,1577.2-802.6Zm-4.8.1c0,1.3.7,2.4,2,2.4s1.9-1.1,1.9-2.5-.6-2.5-1.9-2.5S1572.4-803.9,1572.4-802.5Z" transform="translate(-1519.5 807.3)"/>
    <path class="cls-2" d="M1583.3-802.2c0-.9-.1-1.9-.1-2.6h0c-.2.7-.5,1.4-.8,2.3l-1,2.9h-.6l-1-2.9a11.9,11.9,0,0,1-.7-2.3h0c-.1.7-.1,1.7-.2,2.6v2.7h-.8l.4-6.1h1l1.1,2.9.6,2.1h0l.7-2.1,1.1-2.9h1l.3,6.1h-.7Z" transform="translate(-1519.5 807.3)"/>
    <path class="cls-2" d="M1585.4-805.6h1.6a2.9,2.9,0,0,1,1.7.5,1.9,1.9,0,0,1,.5,1.3,1.7,1.7,0,0,1-.5,1.3,2.7,2.7,0,0,1-1.8.7h-.7v2.5h-.8Zm.8,3h.7c.9,0,1.5-.4,1.5-1.3s-.6-1.2-1.4-1.2h-.8Z" transform="translate(-1519.5 807.3)"/>
    <path class="cls-2" d="M1590.2-805.6h.8v5.4h2.6v.7h-3.4Z" transform="translate(-1519.5 807.3)"/>
    <path class="cls-2" d="M1597.7-802.4h-2.4v2.2h2.6v.7h-3.4v-6.1h3.3v.6h-2.5v2h2.4Z" transform="translate(-1519.5 807.3)"/>
    <path class="cls-2" d="M1600.4-805.6h.7v4c0,1.7-.7,2.2-1.8,2.2l-.8-.2v-.6h.6c.7,0,1.2-.3,1.2-1.5Z" transform="translate(-1519.5 807.3)"/>
    <path class="cls-2" d="M1607.7-802.6a2.9,2.9,0,0,1-2.9,3.2,2.8,2.8,0,0,1-2.7-3.1c0-2,1.2-3.2,2.8-3.2S1607.7-804.5,1607.7-802.6Zm-4.8.1c0,1.3.7,2.4,2,2.4s1.9-1.1,1.9-2.5-.6-2.5-1.9-2.5S1602.9-803.9,1602.9-802.5Z" transform="translate(-1519.5 807.3)"/>
    <path class="cls-2" d="M1610.5-800.5a2.9,2.9,0,0,0,1.4.4c.8,0,1.3-.4,1.3-1s-.4-.9-1.2-1.2-1.6-.9-1.6-1.8.8-1.6,2-1.6a2.1,2.1,0,0,1,1.3.3l-.2.6a2.4,2.4,0,0,0-1.1-.3c-.9,0-1.2.5-1.2.9s.4.9,1.2,1.2,1.6.9,1.6,1.8-.7,1.7-2.2,1.7a3.3,3.3,0,0,1-1.5-.3Z" transform="translate(-1519.5 807.3)"/>
    <path class="cls-2" d="M1616-801.5l-.6,2h-.8l2.1-6.1h.9l2.1,6.1h-.9l-.6-2Zm2-.6-.6-1.7-.3-1.1h0l-.3,1.1-.6,1.7Z" transform="translate(-1519.5 807.3)"/>
    <path class="cls-2" d="M1620.6-799.5v-6.1h.8l2,3.1,1.1,1.9h0a19.3,19.3,0,0,1-.1-2.5v-2.5h.7v6.1h-.8l-1.9-3.1a21.2,21.2,0,0,1-1.1-2.1h-.1a20.1,20.1,0,0,1,.1,2.6v2.6Z" transform="translate(-1519.5 807.3)"/>
    <path class="cls-2" d="M1627.3-805.6v6.1h-.8v-6.1Z" transform="translate(-1519.5 807.3)"/>
    <path class="cls-2" d="M1629.8-805H1628v-.6h4.5v.6h-1.9v5.5h-.8Z" transform="translate(-1519.5 807.3)"/>
    <path class="cls-2" d="M1633.5-801.5l-.7,2h-.8l2.1-6.1h.9l2.1,6.1h-.8l-.7-2Zm2-.6-.6-1.7a7.6,7.6,0,0,1-.4-1.1h0l-.3,1.1-.6,1.7Z" transform="translate(-1519.5 807.3)"/>
    <path class="cls-2" d="M1638-805.5l1.5-.2a2.8,2.8,0,0,1,1.8.5,1.7,1.7,0,0,1,.5,1.2,1.5,1.5,0,0,1-1.2,1.5h0a1.3,1.3,0,0,1,.9,1.2,7.1,7.1,0,0,0,.5,1.7h-.8a4.8,4.8,0,0,1-.4-1.5c-.2-.8-.6-1.2-1.3-1.2h-.7v2.7h-.8Zm.8,2.7h.8c.8,0,1.4-.4,1.4-1.1s-.6-1.2-1.4-1.2h-.8Z" transform="translate(-1519.5 807.3)"/>
    <path class="cls-2" d="M1643.7-805.6v6.1h-.8v-6.1Z" transform="translate(-1519.5 807.3)"/>
    <path class="cls-2" d="M1650.2-802.6c0,2-1.2,3.2-2.8,3.2a2.8,2.8,0,0,1-2.7-3.1c0-2,1.2-3.2,2.8-3.2S1650.2-804.5,1650.2-802.6Zm-4.7.1c0,1.3.7,2.4,1.9,2.4s2-1.1,2-2.5-.6-2.5-1.9-2.5S1645.5-803.9,1645.5-802.5Z" transform="translate(-1519.5 807.3)"/>
  </g>
</svg>
